Intro to R for Social Data Science
…
```r
ols <- lm_robust(formula = imwbcnt ~ eduyrs, data = ESS, weights = pspwght)
```
]
.push-right[
<img src="7-Bivariate-OLS_files/figure-html/Coefplot2-1.png" width="100%" style="display: block; margin: auto;" />
]]
.panel[.panel-name[Predictions]
.push-left[
**Step 1**: Generate fictional data of `\(x\)` with theoretically-informative values.

```r
(fict_dat <- tibble(eduyrs = 1:30))
# # A tibble: 30 × 1
#    eduyrs
#     <int>
#  1      1
#  2      2
#  3      3
#  4      4
#  5      5
#  6      6
#  7      7
#  8      8
#  9      9
# 10     10
# # … with 20 more rows
```
]
.push-right[
**Step 2**: Apply estimated model to fictional data. Given fictional data, what `\(\hat{y}\)` does our model predict?

```r
*(fict_dat <- predict(
* ols, newdata = fict_dat,
* interval = "confidence", level = 0.95)$fit %>%
   as_tibble() %>% # Turn into a tibble, then
   bind_cols(fict_dat, .)) # Add to the synthetic data.
# # A tibble: 30 × 4
#    eduyrs   fit   lwr   upr
#     <int> <dbl> <dbl> <dbl>
#  1      1  7.35  7.06  7.64
#  2      2  7.24  6.97  7.51
#  3      3  7.13  6.89  7.37
#  4      4  7.02  6.80  7.24
#  5      5  6.91  6.71  7.11
#  6      6  6.80  6.62  6.98
#  7      7  6.69  6.53  6.85
#  8      8  6.58  6.45  6.71
#  9      9  6.47  6.35  6.58
# 10     10  6.36  6.26  6.46
# # … with 20 more rows
```
…
