Intro to R
…
.panelset[
.panel[.panel-name[Predictions]
.push-left[
Generate a synthetic tibble with theoretically-informative values varying two predictors. `modelr::data_grid()` generates a tibble with all combinations of the provided variables.

```r
(pred_data <- ESS %>%
   # Generate theoretically-informative 
   # synthetic tibble for predictions.
*  data_grid(nwspol_hrs = seq_range(nwspol_hrs, 20),
*            rtrd = names(table(ESS$rtrd)),
             gndr = names(sort(table(ESS$gndr), decreasing = TRUE))[1],
             cntry = names(sort(table(ESS$cntry), decreasing = TRUE))[1])
)
# # A tibble: 40 × 4
#    nwspol_hrs rtrd       gndr   cntry  
#         <dbl> <chr>      <chr>  <chr>  
#  1       0    Marked     Female Hungary
#  2       0    Not marked Female Hungary
#  3       1.05 Marked     Female Hungary
#  4       1.05 Not marked Female Hungary
#  5       2.11 Marked     Female Hungary
#  6       2.11 Not marked Female Hungary
#  7       3.16 Marked     Female Hungary
#  8       3.16 Not marked Female Hungary
#  9       4.21 Marked     Female Hungary
# 10       4.21 Not marked Female Hungary
# # … with 30 more rows
```
]
.push-right[
Compute predictions from model for synthetic data. Given data, what `\(\hat{y}\)` does our model predict?

```r
(pred_data <- predict(
  ols, newdata = pred_data,
  interval = "confidence", level = 0.95)$fit %>%
   as_tibble() %>% # Turn into a tibble, then
   bind_cols(pred_data, .)) # Add to the synthetic data.
# # A tibble: 40 × 7
#    nwspol_hrs rtrd       gndr   cntry     fit   lwr   upr
#         <dbl> <chr>      <chr>  <chr>   <dbl> <dbl> <dbl>
#  1       0    Marked     Female Hungary  6.18  6.00  6.37
#  2       0    Not marked Female Hungary  5.75  5.62  5.89
#  3       1.05 Marked     Female Hungary  6.20  6.02  6.38
#  4       1.05 Not marked Female Hungary  5.77  5.64  5.90
#  5       2.11 Marked     Female Hungary  6.22  6.04  6.40
#  6       2.11 Not marked Female Hungary  5.79  5.65  5.93
#  7       3.16 Marked     Female Hungary  6.24  6.06  6.42
#  8       3.16 Not marked Female Hungary  5.81  5.66  5.96
#  9       4.21 Marked     Female Hungary  6.26  6.07  6.45
# 10       4.21 Not marked Female Hungary  5.83  5.66  6.00
# # … with 30 more rows
```
…
