Intro to R for Social Data Science
…
---
# Model visualization .font60[Especially for lay audiences!]

.push-left[
**Step 1**: Generate a synthetic tibble with theoretically-informative values containing all variables of the model you want to visualize. `modelr::data_grid()` generates a tibble with all combinations of the variables you feed to it.
.font80[

```r
(synth_data <- ESS %>%
   # Generate theoretically-informative 
   # but artificial tibble for predictions.
*  data_grid(eduyrs, par_edu, gndr, agea, cntry))
# # A tibble: 154,128 x 5
#    eduyrs par_edu gndr   agea cntry   
#     <dbl>   <dbl> <fct> <dbl> <fct>   
#  1      9       1 Male     15 Denmark 
#  2      9       1 Male     15 Bulgaria
#  3      9       1 Male     15 Germany 
#  4      9       1 Male     15 Sweden  
#  5      9       1 Male     16 Denmark 
#  6      9       1 Male     16 Bulgaria
#  7      9       1 Male     16 Germany 
#  8      9       1 Male     16 Sweden  
#  9      9       1 Male     17 Denmark 
# 10      9       1 Male     17 Bulgaria
# # … with 154,118 more rows
```
…
--

.push-right[
.font80[
**Step 2**: Alter your new tibble, so that only one predictor of interest varies. Set all others to an informative constant value.

```r
(synth_data <- synth_data %>%
   mutate( # Set variables constant that you don't want to vidualize,
     eduyrs = mean(ESS$eduyrs, na.rm = TRUE),
     par_edu = mean(ESS$par_edu, na.rm = TRUE),
     gndr = "Female",
     cntry = "Denmark") %>% # then
   unique()) # Drop duplicates.
# # A tibble: 76 x 5
#    eduyrs par_edu gndr    agea cntry  
#     <dbl>   <dbl> <chr>  <dbl> <chr>  
#  1   13.8    3.14 Female    15 Denmark
#  2   13.8    3.14 Female    16 Denmark
#  3   13.8    3.14 Female    17 Denmark
#  4   13.8    3.14 Female    18 Denmark
#  5   13.8    3.14 Female    19 Denmark
#  6   13.8    3.14 Female    20 Denmark
#  7   13.8    3.14 Female    21 Denmark
#  8   13.8    3.14 Female    22 Denmark
#  9   13.8    3.14 Female    23 Denmark
# 10   13.8    3.14 Female    24 Denmark
# # … with 66 more rows
```
…
.push-right[
.font80[

```
# # A tibble: 76 x 8
#    eduyrs par_edu gndr    agea cntry      fit    lwr    upr
#     <dbl>   <dbl> <chr>  <dbl> <chr>    <dbl>  <dbl>  <dbl>
#  1   13.8    3.14 Female    15 Denmark -0.282 -0.384 -0.179
#  2   13.8    3.14 Female    16 Denmark -0.272 -0.370 -0.173
#  3   13.8    3.14 Female    17 Denmark -0.261 -0.356 -0.167
#  4   13.8    3.14 Female    18 Denmark -0.252 -0.342 -0.161
#  5   13.8    3.14 Female    19 Denmark -0.242 -0.329 -0.154
#  6   13.8    3.14 Female    20 Denmark -0.232 -0.316 -0.148
#  7   13.8    3.14 Female    21 Denmark -0.223 -0.304 -0.142
#  8   13.8    3.14 Female    22 Denmark -0.214 -0.293 -0.135
#  9   13.8    3.14 Female    23 Denmark -0.205 -0.281 -0.129
# 10   13.8    3.14 Female    24 Denmark -0.196 -0.271 -0.122
# # … with 66 more rows
```
…
# Generate predictions and 95% confidence intervals, then
synth_data <- predict(ols7, newdata = synth_data,
                      interval = "confidence",
                      level=0.95)$fit %>%
  as_tibble() %>% # Turn into a tibble, then
  bind_cols(synth_data, .) # Add to the synthetic data.
```
]]

.push-right[
.font80[

```
# # A tibble: 52 x 8
#    par_edu gndr   cntry    eduyrs  agea      fit     lwr     upr
#      <dbl> <chr>  <fct>     <dbl> <dbl>    <dbl>   <dbl>   <dbl>
#  1    3.14 Female Denmark       9  52.3  0.238    0.122   0.353 
#  2    3.14 Female Denmark      10  52.3  0.180    0.0769  0.283 
#  3    3.14 Female Denmark      11  52.3  0.122    0.0305  0.215 
#  4    3.14 Female Denmark      12  52.3  0.0649  -0.0175  0.147 
#  5    3.14 Female Denmark      13  52.3  0.00723 -0.0678  0.0823
#  6    3.14 Female Denmark      14  52.3 -0.0504  -0.121   0.0202
#  7    3.14 Female Denmark      15  52.3 -0.108   -0.178  -0.0384
#  8    3.14 Female Denmark      16  52.3 -0.166   -0.238  -0.0933
#  9    3.14 Female Denmark      17  52.3 -0.223   -0.302  -0.145 
# 10    3.14 Female Denmark      18  52.3 -0.281   -0.368  -0.194 
# 11    3.14 Female Denmark      19  52.3 -0.339   -0.436  -0.241 
# 12    3.14 Female Denmark      20  52.3 -0.396   -0.505  -0.287 
# 13    3.14 Female Denmark      21  52.3 -0.454   -0.576  -0.332 
# 14    3.14 Female Bulgaria      9  52.3  0.475    0.372   0.577 
# 15    3.14 Female Bulgaria     10  52.3  0.490    0.400   0.580 
# 16    3.14 Female Bulgaria     11  52.3  0.505    0.426   0.584 
# 17    3.14 Female Bulgaria     12  52.3  0.520    0.449   0.591 
# 18    3.14 Female Bulgaria     13  52.3  0.535    0.468   0.603 
# 19    3.14 Female Bulgaria     14  52.3  0.550    0.481   0.619 
# 20    3.14 Female Bulgaria     15  52.3  0.565    0.491   0.640 
# 21    3.14 Female Bulgaria     16  52.3  0.580    0.497   0.664 
# 22    3.14 Female Bulgaria     17  52.3  0.596    0.500   0.691 
# 23    3.14 Female Bulgaria     18  52.3  0.611    0.501   0.720 
# 24    3.14 Female Bulgaria     19  52.3  0.626    0.502   0.750 
# 25    3.14 Female Bulgaria     20  52.3  0.641    0.501   0.781 
# 26    3.14 Female Bulgaria     21  52.3  0.656    0.500   0.812 
# 27    3.14 Female Germany       9  52.3  0.195    0.0861  0.303 
# 28    3.14 Female Germany      10  52.3  0.128    0.0314  0.225 
# # … with 24 more rows
```
…
