Intro to R for Social Data Science
…
---
# Model visualization .font60[Especially for lay audiences!]

.push-left[
**Step 1**: Generate a synthetic tibble with theoretically-informative values containing all variables of the model you want to visualize. `modelr::data_grid()` generates a tibble with all combinations of the variables you feed to it.
.font80[

```r
(synth_data <- ESS %>%
   # Generate theoretically-informative 
   # but artificial tibble for predictions.
*  data_grid(eduyrs, par_edu, gndr, agea, cntry))
# # A tibble: 154,128 × 5
#    eduyrs par_edu gndr   agea cntry   
#     <dbl>   <dbl> <fct> <dbl> <fct>   
#  1      9       1 Male     15 Denmark 
#  2      9       1 Male     15 Bulgaria
#  3      9       1 Male     15 Germany 
#  4      9       1 Male     15 Sweden  
#  5      9       1 Male     16 Denmark 
#  6      9       1 Male     16 Bulgaria
#  7      9       1 Male     16 Germany 
#  8      9       1 Male     16 Sweden  
#  9      9       1 Male     17 Denmark 
# 10      9       1 Male     17 Bulgaria
# # … with 154,118 more rows
```
…
--

.push-right[
.font80[
**Step 2**: Alter your new tibble, so that only one predictor of interest varies. Set all others to an informative constant value.

```r
(synth_data <- synth_data %>%
   mutate( # Set variables constant that you don't want to vidualize,
     eduyrs = mean(ESS$eduyrs, na.rm = TRUE),
     par_edu = mean(ESS$par_edu, na.rm = TRUE),
     gndr = "Female",
     cntry = "Denmark") %>% # then
   unique()) # Drop duplicates.
# # A tibble: 76 × 5
#    eduyrs par_edu gndr    agea cntry  
#     <dbl>   <dbl> <chr>  <dbl> <chr>  
#  1   13.7    3.11 Female    15 Denmark
#  2   13.7    3.11 Female    16 Denmark
#  3   13.7    3.11 Female    17 Denmark
#  4   13.7    3.11 Female    18 Denmark
#  5   13.7    3.11 Female    19 Denmark
#  6   13.7    3.11 Female    20 Denmark
#  7   13.7    3.11 Female    21 Denmark
#  8   13.7    3.11 Female    22 Denmark
#  9   13.7    3.11 Female    23 Denmark
# 10   13.7    3.11 Female    24 Denmark
# # … with 66 more rows
```
…
.push-right[
.font80[

```
# # A tibble: 76 × 8
#    eduyrs par_edu gndr    agea cntry     fit   lwr   upr
#     <dbl>   <dbl> <chr>  <dbl> <chr>   <dbl> <dbl> <dbl>
#  1   13.7    3.11 Female    15 Denmark  3.80  3.54  4.05
#  2   13.7    3.11 Female    16 Denmark  3.82  3.58  4.07
#  3   13.7    3.11 Female    17 Denmark  3.85  3.61  4.08
#  4   13.7    3.11 Female    18 Denmark  3.87  3.65  4.10
#  5   13.7    3.11 Female    19 Denmark  3.90  3.68  4.12
#  6   13.7    3.11 Female    20 Denmark  3.92  3.71  4.13
#  7   13.7    3.11 Female    21 Denmark  3.95  3.74  4.15
#  8   13.7    3.11 Female    22 Denmark  3.97  3.77  4.16
#  9   13.7    3.11 Female    23 Denmark  3.99  3.80  4.18
# 10   13.7    3.11 Female    24 Denmark  4.01  3.83  4.20
# # … with 66 more rows
```
…
# Generate predictions and 95% confidence intervals, then
synth_data <- predict(ols7, newdata = synth_data,
                      interval = "confidence",
                      level=0.95)$fit %>%
  as_tibble() %>% # Turn into a tibble, then
  bind_cols(synth_data, .) # Add to the synthetic data.
```
]]

.push-right[
.font80[

```
# # A tibble: 52 × 8
#    par_edu gndr   cntry    eduyrs  agea   fit   lwr   upr
#      <dbl> <chr>  <fct>     <dbl> <dbl> <dbl> <dbl> <dbl>
#  1    3.11 Female Denmark       9  52.4  5.05  4.77  5.32
#  2    3.11 Female Denmark      10  52.4  4.92  4.67  5.17
#  3    3.11 Female Denmark      11  52.4  4.80  4.58  5.02
#  4    3.11 Female Denmark      12  52.4  4.68  4.48  4.88
#  5    3.11 Female Denmark      13  52.4  4.56  4.37  4.74
#  6    3.11 Female Denmark      14  52.4  4.43  4.26  4.61
#  7    3.11 Female Denmark      15  52.4  4.31  4.14  4.48
#  8    3.11 Female Denmark      16  52.4  4.19  4.01  4.36
#  9    3.11 Female Denmark      17  52.4  4.07  3.88  4.25
# 10    3.11 Female Denmark      18  52.4  3.94  3.73  4.15
# 11    3.11 Female Denmark      19  52.4  3.82  3.59  4.05
# 12    3.11 Female Denmark      20  52.4  3.70  3.44  3.96
# 13    3.11 Female Denmark      21  52.4  3.57  3.28  3.86
# 14    3.11 Female Bulgaria      9  52.4  5.87  5.63  6.11
# 15    3.11 Female Bulgaria     10  52.4  5.91  5.70  6.12
# 16    3.11 Female Bulgaria     11  52.4  5.95  5.77  6.14
# 17    3.11 Female Bulgaria     12  52.4  6.00  5.83  6.16
# 18    3.11 Female Bulgaria     13  52.4  6.04  5.88  6.20
# 19    3.11 Female Bulgaria     14  52.4  6.08  5.92  6.24
# 20    3.11 Female Bulgaria     15  52.4  6.12  5.95  6.30
# 21    3.11 Female Bulgaria     16  52.4  6.16  5.97  6.36
# 22    3.11 Female Bulgaria     17  52.4  6.21  5.98  6.43
# 23    3.11 Female Bulgaria     18  52.4  6.25  5.99  6.51
# 24    3.11 Female Bulgaria     19  52.4  6.29  6.00  6.58
# 25    3.11 Female Bulgaria     20  52.4  6.33  6.01  6.66
# 26    3.11 Female Bulgaria     21  52.4  6.38  6.01  6.74
# 27    3.11 Female Germany       9  52.4  5.52  5.26  5.79
# 28    3.11 Female Germany      10  52.4  5.38  5.14  5.62
# # … with 24 more rows
```
…
