Intro to R
…
The `essurvey` package, allows us to download ESS data directly into our R session using the `import_rounds()` function. .backgrnote[If you did not install and load the package yet, run `install.packages("essurvey")` in your Console, then add `library(essurvey)` to your script)

```r
# Import the ESS round 9 data via the API
ESS <- import_rounds(rounds = 9, ess_email = "YOUR-EMAIL", format = "spss")
```

--

Note: .alert[using an API requires internet access!] So, consider placing data import and transformation in a dedicate R script.

```r
ESS
# # A tibble: 49,519 × 572
#    name      essround edition proddate  idno cntry    nwspol netusoft netustm ppltrst pplfair pplhlp polintr psppsgva
#    <chr>        <dbl> <chr>   <chr>    <dbl> <chr+lb> <dbl+> <dbl+lb> <dbl+l> <dbl+l> <dbl+l> <dbl+> <dbl+l> <dbl+lb>
#  1 ESS9e03_1        9 3.1     17.02.2…    27 AT [Aus…     60 5 [Ever…     180   2 [2]   2 [2]  2 [2] 3 [Har… 3 [Some]
#  2 ESS9e03_1        9 3.1     17.02.2…   137 AT [Aus…     10 5 [Ever…      20   7 [7]   8 [8]  7 [7] 2 [Qui… 3 [Some]
#  3 ESS9e03_1        9 3.1     17.02.2…   194 AT [Aus…     60 4 [Most…     180   5 [5]   7 [7]  7 [7] 4 [Not… 2 [Very…
#  4 ESS9e03_1        9 3.1     17.02.2…   208 AT [Aus…     45 5 [Ever…     120   3 [3]   9 [9]  5 [5] 3 [Har… 2 [Very…
#  5 ESS9e03_1        9 3.1     17.02.2…   220 AT [Aus…     30 1 [Neve…      NA   5 [5]   8 [8]  4 [4] 2 [Qui… 1 [Not …
#  6 ESS9e03_1        9 3.1     17.02.2…   254 AT [Aus…     45 2 [Only…      NA   8 [8]   7 [7]  6 [6] 2 [Qui… 2 [Very…
#  7 ESS9e03_1        9 3.1     17.02.2…   290 AT [Aus…     60 1 [Neve…      NA   6 [6]   1 [1]  3 [3] 4 [Not… 2 [Very…
#  8 ESS9e03_1        9 3.1     17.02.2…   301 AT [Aus…     30 1 [Neve…      NA   7 [7]   7 [7]  7 [7] 3 [Har… 1 [Not …
#  9 ESS9e03_1        9 3.1     17.02.2…   305 AT [Aus…     30 5 [Ever…     120   2 [2]   9 [9]  9 [9] 3 [Har… 1 [Not …
# 10 ESS9e03_1        9 3.1     17.02.2…   400 AT [Aus…     25 4 [Most…     360   7 [7]   4 [4]  4 [4] 4 [Not… 2 [Very…
# # … with 49,509 more rows, and 558 more variables: actrolga <dbl+lbl>, psppipla <dbl+lbl>, cptppola <dbl+lbl>,
# #   trstprl <dbl+lbl>, trstlgl <dbl+lbl>, trstplc <dbl+lbl>, trstplt <dbl+lbl>, trstprt <dbl+lbl>,
# #   trstep <dbl+lbl>, trstun <dbl+lbl>, vote <dbl+lbl>, prtvtcat <dbl+lbl>, prtvtdbe <dbl+lbl>,
# #   prtvtdbg <dbl+lbl>, prtvtgch <dbl+lbl>, prtvtbcy <dbl+lbl>, prtvtecz <dbl+lbl>, prtvede1 <dbl+lbl>,
# #   prtvede2 <dbl+lbl>, prtvtddk <dbl+lbl>, prtvtgee <dbl+lbl>, prtvtees <dbl+lbl>, prtvtdfi <dbl+lbl>,
# #   prtvtdfr <dbl+lbl>, prtvtcgb <dbl+lbl>, prtvtahr <dbl+lbl>, prtvtfhu <dbl+lbl>, prtvtcie <dbl+lbl>,
# #   prtvtcis <dbl+lbl>, prtvtcit <dbl+lbl>, prtvblt1 <dbl+lbl>, prtvblt2 <dbl+lbl>, prtvblt3 <dbl+lbl>, …
```
…
