Intro to R
…
```r
ESS
# # A tibble: 6,272 × 10
#    cntry    gndr   facntr mocntr dscrgrp dscrrlg    rel_discr pspwght  agea eduyrs
#    <fct>    <fct>  <fct>  <fct>  <fct>   <fct>      <fct>       <dbl> <dbl>  <dbl>
#  1 Bulgaria Female Yes    Yes    No      Not marked No          0.225    76     12
#  2 Bulgaria Male   Yes    Yes    No      Not marked No          0.191    43     16
#  3 Bulgaria Female Yes    Yes    No      Not marked No          0.219    50     16
#  4 Bulgaria Male   Yes    Yes    No      Not marked No          0.183    70     17
#  5 Bulgaria Female Yes    Yes    No      Not marked No          0.206    31     12
#  6 Bulgaria Male   Yes    Yes    No      Not marked No          0.221    40     12
#  7 Bulgaria Male   Yes    Yes    No      Not marked No          0.225    48     12
#  8 Bulgaria Male   Yes    Yes    No      Not marked No          0.216    71     11
#  9 Bulgaria Male   Yes    Yes    No      Not marked No          0.228    71      9
# 10 Bulgaria Female Yes    Yes    No      Not marked No          0.218    71     12
# # … with 6,262 more rows
```
…
.push-right[
<img src="img/Wang2.png" width="100%" style="display: block; margin: auto;" />
]

---
# **Grouped operations**

Today, we want to compare countries. `group_by()` will transform your data into a **grouped tibble**. Afterwards, certain functions will operate on the level of those specified groups!

```r
# Group my data by country.
(ESS_cntry <- ESS %>% 
*  group_by(cntry))
# # A tibble: 6,272 × 10
# # Groups:   cntry [3]
#    cntry    gndr   facntr mocntr dscrgrp dscrrlg    rel_discr pspwght  agea eduyrs
#    <fct>    <fct>  <fct>  <fct>  <fct>   <fct>      <fct>       <dbl> <dbl>  <dbl>
#  1 Bulgaria Female Yes    Yes    No      Not marked No          0.225    76     12
#  2 Bulgaria Male   Yes    Yes    No      Not marked No          0.191    43     16
#  3 Bulgaria Female Yes    Yes    No      Not marked No          0.219    50     16
#  4 Bulgaria Male   Yes    Yes    No      Not marked No          0.183    70     17
#  5 Bulgaria Female Yes    Yes    No      Not marked No          0.206    31     12
#  6 Bulgaria Male   Yes    Yes    No      Not marked No          0.221    40     12
#  7 Bulgaria Male   Yes    Yes    No      Not marked No          0.225    48     12
#  8 Bulgaria Male   Yes    Yes    No      Not marked No          0.216    71     11
#  9 Bulgaria Male   Yes    Yes    No      Not marked No          0.228    71      9
# 10 Bulgaria Female Yes    Yes    No      Not marked No          0.218    71     12
# # … with 6,262 more rows
```
…
