Intro to R
…
---
class: clear middle

```r
# Case selection.
ESS <- dplyr::filter(ESS,
                     # Only respondents whose parents were born in country of interview.
                     facntr == "Yes" & mocntr == "Yes" &
                       # Only respondents from Germany and land-boarder neighbors:
                       (cntry %in% c("Slovakia", "Hungary", "Czechia", "Slovenia"))
)

# Casewise deletion of missing values
(ESS <- drop_na(ESS))
# # A tibble: 5,734 × 11
#     idno cntry   gndr   facntr mocntr imbgeco imueclt imwbcnt  agea pspwght eduyrs
#    <dbl> <fct>   <fct>  <fct>  <fct>    <dbl>   <dbl>   <dbl> <dbl>   <dbl>  <dbl>
#  1 10004 Czechia Male   Yes    Yes          5       6       6    60   0.374     13
#  2 10009 Czechia Male   Yes    Yes         10       9       2    74   0.187     17
#  3 10019 Czechia Female Yes    Yes          3       3       3    22   0.187     12
#  4 10038 Czechia Male   Yes    Yes          7      10      10    61   0.374     12
#  5 10052 Czechia Male   Yes    Yes          3       8       8    56   0.187     12
#  6 10053 Czechia Male   Yes    Yes          0       5       6    38   0.374     13
#  7 10055 Czechia Female Yes    Yes          5       4       4    82   0.187     13
#  8 10062 Czechia Female Yes    Yes          3       6       3    81   0.187     12
#  9 10064 Czechia Female Yes    Yes          5       5       5    64   0.374     13
# 10 10065 Czechia Male   Yes    Yes          3       3       3    39   0.187     13
# # … with 5,724 more rows
```
…
